…
long_crops<-mutate(long_crops, iso_a3=code)


long_crops
```

```
## # A tibble: 143,825 x 6
##    entity      code   year crop                           crop_production iso_a3
##    <chr>       <chr> <dbl> <chr>                                    <dbl> <chr> 
##  1 Afghanistan AFG    1961 wheat_tonnes_per_hectare                  1.02 AFG   
##  2 Afghanistan AFG    1961 rice_tonnes_per_hectare                   1.52 AFG   
##  3 Afghanistan AFG    1961 maize_tonnes_per_hectare                  1.4  AFG   
##  4 Afghanistan AFG    1961 soybeans_tonnes_per_hectare              NA    AFG   
##  5 Afghanistan AFG    1961 potatoes_tonnes_per_hectare               8.67 AFG   
##  6 Afghanistan AFG    1961 beans_tonnes_per_hectare                 NA    AFG   
##  7 Afghanistan AFG    1961 peas_tonnes_per_hectare                  NA    AFG   
##  8 Afghanistan AFG    1961 cassava_tonnes_per_hectare               NA    AFG   
##  9 Afghanistan AFG    1961 barley_tonnes_per_hectare                 1.08 AFG   
## 10 Afghanistan AFG    1961 cocoa_beans_tonnes_per_hectare           NA    AFG   
## # ... with 143,815 more rows
```
…
